[{"character": "Cyclops", "realName": "Scott Summers"},
{"character": "Professor X", "realName": "Charles Francis Xavier"},
{"character": "Mystique", "realName": "Raven Darkholme"},
{"character": "Magneto", "realName": "Max Eisenhardt"},
{"character": "Storm", "realName": "Ororo Monroe"},
{"character": "Wolverine", "realName": "James Howlett"}]